3-9-19: N-Sum and binary search;

TODO List: 480: Sliding Window Median, 295: Find Median from Data Stream

Topological Sorting, Greedy, Minimum Spanning Tree, Binary Search, Divide & Conquer, Dynamic Programmming, Trie, Union Find, Hash Table, Heap, Binary Search Tree

6-18-20: Binary Search: 033; 034; 035
6-20-20: Binary Search: 074; 240; 081; 154; 278;
6-22-20: Binary Search: 392; 704; 852;
6-23-20: Binary Search: 162
         N_Sum: 1; 15; 167;
6-24-20: N_Sum: 15; 16; 18, 259
6-28-20: Array: 26, 27
7-1-20: Array: 54; 59; 73; 163
7-2-20: Array: 163; 228
7-3-20: Array: 229;
7-4-20: Array: 238;
7-5-20: Array: 414, 289
7-7-20: Array: 442; 448
7-8-20: Sliding Window: 3
7-9-20: Sliding Window: 487
7-12-20: Sliding Window: 395
7-14-20: Array: 239, 480
7-15-20: Array: 480, 295, 1004, 159, 340, 283, 287
7-16-20: Array: 565
7-20-20: Array: 339
7-21-20: Array: 339, 364
7-28-20: Array: 621, Lintcode 587
7-31-20: Array: 621, 325
8-1-20: Backtracking: 713, 17. 22, 39, 40, 46, 47
8-2-20: Backtracking: 77, 78, 90, 131, 254, 267
        LinkedList: 2
        Stack: 232, 225
        Tree: 94, 144, 145
8-6-20: Tree: 145, 144, 94, 102, 103, 589
8-8-20: Tree: 314， 987
8-9-20: Tree: 98, 99, 100, 101, 104, 111
8-10-20: Tree: 105, 106, xxx, (construct tree with level order & inorder)， 889 (TODO), 112
8-13-20: Tree 108
8-14-20: DFS: 130
8-16-20: DFS: 286
8-26-20: Tree: 112, 113
8-28-20: Array: 1438
8-30-20: Array: 406
9-4-20: Tree: 116, 117, 129
9-5-20: Tree: 173, 199
9-6-20: Tree: 226, 230, 235, 236
9-7-20: 146, 218, 661
9-16-20: Graph: 207
9-17-20: Graph: 207, 210, 261
9-18-20: Graph: 261
9-19-20: DP: 70, 62, 63, 64,
9-21-20: DP: Backpack, Backpack II, Backpack IV, Backpack V, Backpack VI, 377
9-22-20: DP: 5, 32, 53, 121, 122, 123
9-23-20: DP: 132, 152, 198, 123
9-24-20: DP: 198, 213, 52
9-27-20: Interval: 56, 252, 253
9-28-20: 91
10-2-20: Calculator: 224, 227, 772,
10-6-20: Graph: 785
10-7-20: DFS: 139, 140, 126, 127
10-18-20: 394
10-19-20: 10, 210
10-20-20: 139, 126, 127, 79, 212, 207, 210, 297
10-21-20: 21
10-23-20: 295, 21, 23
10-25-20: 563
10-29-20: 692, 1335, 1010,
10-30-20: 973, 530, 783, 235, 701, 819
11-1-20: 490, 505, 499
11-3-20: 285, 510
11-4-20: 76, 297, 449, 428.
11-5-20: 282, 937, 994，296
11-8-20: 120, 1192
11-10-20: 257, 560, 542, 1091, 1293, 1553, 
11-11-20: 743, 1376
11-15-20: 32， 207
11-21-20: 496, 503, 739, 556, 31
11-22-20: 121, 122, 123, 188, 309, 714, 198, 213
11-23-20: 4, 11, 209, 992, 560, 657, 53, 387, 8, 9
11-24-20: 189, 141, 206, 160, 19
11-25-20: 10, 44, 155, 153, 166
11-28-20: 42, 1086
11-30-20: 218, 317
12-1-20: 443
12-2-20: 380
12-12-20: 1, 10, 12, 14, 20, 21, 23, 44, 56, 57, 200, 208, 239
12-13-20: 146, 384
12-14-20: 105, 106, 133, 139, 149
12-17-20: 3, 11, 15, 16

12-28-20: 931, 1289
12-29-20: 94, 144, 145, 102, 103, 235, 236, 931
12-30-20: 230, 173, 199, 987, 297, 98, 222
12-31-20: 114, 430, 138
1-1-21: 333, 637, 340
1-2-21: 1123, 865, 958
1-3-21: 127
1-4-21: 212, 79, 139
1-6-21: 485, 487, 1004, 443, 930, 1428, 674
1-7-21: 22, 921, 1249, 1574, 1540, 1197
1-12-21: 215, 505, 490, 56, 57
1-16-21: 146, 572, 155, 76, 215, 200, 994, 472, 23, 74, 240
1-17-21: 253, 1167, 694, 210, 138, 127, 380, 863, 121, 122, 123, 309, 714, 1268, 545, 733

1-25-21: 3, 9, 11, 15, 16, 19, 33, 39, 45, 46, 49, 50, 53, 54, 62, 63, 64, 78, 438, 
1-26-21: 560, 189, 209, 931, 443, 56, 98, 99, 160, 153, 1010, 91, 322, 289

2-9-21: 20, 49, 56, 72, 79, 124, 207, 472
2-10-21: 210, 146
2-13-21: 236, 224, 227, 772

TODO: 255, 272, 236, 329, 680

